DS0016.CSV

Format,1.0B,,,,,1.0B
Memory Length,10000,,,,,10000
IntpDistance,0,,,,,0
Trigger Address,4999,,,,,4999
Trigger Level,0.00E+00,,,,,0.00E+00
Source,CH1,,,,,CH1
Vertical Units,V,,,,,V
Vertical Units Div,0,,,,,0
Vertical Units Extend Div,16,,,,,16
Label, ,,,,, 
Probe Type,,,0,,0.05,-4.00E-01
Probe Ratio,,,1.00E+00,,0.1,-4.00E-01
Vertical Scale,,,5.00E+00,,0.15,-4.00E-01
Vertical Position,,,0.00E+00,,0.2,-4.00E-01
Horizontal Units,,,S,,0.25,-4.00E-01
Horizontal Scale,,,5.00E-02,,0.3,-4.00E-01
Horizontal Position,,,0.00E+00,,0.35,-4.00E-01
Horizontal Mode,,,Main,,0.4,-4.00E-01
SincET Mode,,,Real Time,,0.45,-4.00E-01
Sampling Period,,,5.00E-05,,0.5,-4.00E-01
Horizontal Old Scale,,,5.00E-02,,0.55,-4.00E-01
Horizontal Old Position,,,0.00E+00,,0.6,-4.00E-01
Firmware,,,V1.29,,0.65,-4.00E-01
Mode,,,Detail,,0.7,-4.00E-01
Waveform Data,,,,,0.75,-4.00E-01
-2.50E-01,-4.00E-01,,,,0.8,-4.00E-01
-2.50E-01,-4.00E-01,,,,0.85,-4.00E-01
-2.50E-01,-4.00E-01,,,,0.9,-4.00E-01
-2.50E-01,-4.00E-01,,,,0.95,-4.00E-01
-2.50E-01,-4.00E-01,,,,1,-4.00E-01
-2.50E-01,-4.00E-01,,,,1.05,-4.00E-01
-2.50E-01,-4.00E-01,,,,1.1,-4.00E-01
-2.50E-01,-4.00E-01,,,,1.15,-4.00E-01
-2.50E-01,-4.00E-01,,,,1.2,0.00E+00
-2.50E-01,-4.00E-01,,,,1.25,-4.00E-01
-2.50E-01,-4.00E-01,,,,1.3,-4.00E-01
-2.49E-01,-4.00E-01,,,,1.35,-4.00E-01
-2.49E-01,-4.00E-01,,,,1.4,-4.00E-01
-2.49E-01,-4.00E-01,,,,1.45,-4.00E-01
-2.49E-01,-4.00E-01,,,,1.5,-4.00E-01
-2.49E-01,-4.00E-01,,,,1.55,-4.00E-01
-2.49E-01,-4.00E-01,,,,1.6,-4.00E-01
-2.49E-01,-4.00E-01,,,,1.65,-4.00E-01
-2.49E-01,-4.00E-01,,,,1.7,-4.00E-01
-2.49E-01,-4.00E-01,,,,1.75,0.00E+00
-2.49E-01,-4.00E-01,,,,1.8,-4.00E-01
-2.49E-01,-4.00E-01,,,,1.85,-4.00E-01
-2.49E-01,-4.00E-01,,,,1.9,-4.00E-01
-2.49E-01,0.00E+00,,,,1.95,-4.00E-01
-2.49E-01,-4.00E-01,,,,2,0.00E+00
-2.49E-01,-4.00E-01,,,,2.05,-4.00E-01
-2.49E-01,-4.00E-01,,,,2.1,-4.00E-01
-2.49E-01,-4.00E-01,,,,2.15,-4.00E-01
-2.49E-01,-4.00E-01,,,,2.2,-4.00E-01
-2.49E-01,-4.00E-01,,,,2.25,-4.00E-01
-2.49E-01,-4.00E-01,,,,2.3,-4.00E-01
-2.48E-01,-4.00E-01,,,,2.35,-4.00E-01
-2.48E-01,-4.00E-01,,,,2.4,0.00E+00
-2.48E-01,-4.00E-01,,,,2.45,-4.00E-01
-2.48E-01,0.00E+00,,,,2.5,-4.00E-01
-2.48E-01,-4.00E-01,,,,2.55,-4.00E-01
-2.48E-01,-4.00E-01,,,,2.6,0.00E+00
-2.48E-01,-4.00E-01,,,,2.65,-4.00E-01
-2.48E-01,-4.00E-01,,,,2.7,0.00E+00
-2.48E-01,0.00E+00,,,,2.75,-4.00E-01
-2.48E-01,-4.00E-01,,,,2.8,-4.00E-01
-2.48E-01,-4.00E-01,,,,2.85,-4.00E-01
-2.48E-01,-4.00E-01,,,,2.9,-4.00E-01
-2.48E-01,-4.00E-01,,,,2.95,-4.00E-01
-2.48E-01,-4.00E-01,,,,3,-4.00E-01
-2.48E-01,-4.00E-01,,,,3.05,-4.00E-01
-2.48E-01,-4.00E-01,,,,3.1,-4.00E-01
-2.48E-01,0.00E+00,,,,3.15,-4.00E-01
-2.48E-01,-4.00E-01,,,,3.2,-4.00E-01
-2.48E-01,-4.00E-01,,,,3.25,0.00E+00
-2.48E-01,-4.00E-01,,,,3.3,0.00E+00
-2.47E-01,0.00E+00,,,,3.35,-4.00E-01
-2.47E-01,-4.00E-01,,,,3.4,-4.00E-01
-2.47E-01,0.00E+00,,,,3.45,-4.00E-01
-2.47E-01,-4.00E-01,,,,3.5,-4.00E-01
-2.47E-01,-4.00E-01,,,,3.55,0.00E+00
-2.47E-01,-4.00E-01,,,,3.6,0.00E+00
-2.47E-01,-4.00E-01,,,,3.65,0.00E+00
-2.47E-01,-4.00E-01,,,,3.7,-4.00E-01
-2.47E-01,-4.00E-01,,,,3.75,-4.00E-01
-2.47E-01,-4.00E-01,,,,3.8,0.00E+00
-2.47E-01,-4.00E-01,,,,3.85,-4.00E-01
-2.47E-01,-4.00E-01,,,,3.9,-4.00E-01
-2.47E-01,-4.00E-01,,,,3.95,0.00E+00
-2.47E-01,0.00E+00,,,,4,0.00E+00
-2.47E-01,0.00E+00,,,,4.05,-4.00E-01
-2.47E-01,-4.00E-01,,,,4.1,-4.00E-01
-2.47E-01,-4.00E-01,,,,4.15,-4.00E-01
-2.47E-01,-4.00E-01,,,,4.2,-4.00E-01
-2.47E-01,-4.00E-01,,,,4.25,-4.00E-01
-2.47E-01,0.00E+00,,,,4.3,0.00E+00
-2.46E-01,0.00E+00,,,,4.35,-4.00E-01
-2.46E-01,0.00E+00,,,,4.4,-4.00E-01
-2.46E-01,-4.00E-01,,,,4.45,-4.00E-01
-2.46E-01,-4.00E-01,,,,4.5,-4.00E-01
-2.46E-01,0.00E+00,,,,4.55,-4.00E-01
-2.46E-01,-4.00E-01,,,,4.6,0.00E+00
-2.46E-01,-4.00E-01,,,,4.65,-4.00E-01
-2.46E-01,0.00E+00,,,,4.7,0.00E+00
-2.46E-01,0.00E+00,,,,4.75,-4.00E-01
-2.46E-01,-4.00E-01,,,,4.8,0.00E+00
-2.46E-01,-4.00E-01,,,,4.85,-4.00E-01
-2.46E-01,-4.00E-01,,,,4.9,-4.00E-01
-2.46E-01,-4.00E-01,,,,4.95,-4.00E-01
-2.46E-01,-4.00E-01,,,,5,0.00E+00
-2.46E-01,0.00E+00,,,,5.05,-4.00E-01
-2.46E-01,-4.00E-01,,,,5.1,-4.00E-01
-2.46E-01,-4.00E-01,,,,5.15,-4.00E-01
-2.46E-01,-4.00E-01,,,,5.2,-4.00E-01
-2.46E-01,-4.00E-01,,,,5.25,-4.00E-01
-2.46E-01,-4.00E-01,,,,5.3,0.00E+00
-2.45E-01,0.00E+00,,,,5.35,-4.00E-01
-2.45E-01,-4.00E-01,,,,5.4,-4.00E-01
-2.45E-01,0.00E+00,,,,5.45,-4.00E-01
-2.45E-01,-4.00E-01,,,,5.5,0.00E+00
-2.45E-01,0.00E+00,,,,5.55,-4.00E-01
-2.45E-01,-4.00E-01,,,,5.6,-4.00E-01
-2.45E-01,-4.00E-01,,,,5.65,-4.00E-01
-2.45E-01,-4.00E-01,,,,5.7,-4.00E-01
-2.45E-01,0.00E+00,,,,5.75,0.00E+00
-2.45E-01,-4.00E-01,,,,5.8,-4.00E-01
-2.45E-01,-4.00E-01,,,,5.85,-4.00E-01
-2.45E-01,-4.00E-01,,,,5.9,-4.00E-01
-2.45E-01,-4.00E-01,,,,5.95,0.00E+00
-2.45E-01,-4.00E-01,,,,6,-4.00E-01
-2.45E-01,0.00E+00,,,,6.05,0.00E+00
-2.45E-01,-4.00E-01,,,,6.1,-4.00E-01
-2.45E-01,-4.00E-01,,,,6.15,-4.00E-01
-2.45E-01,-4.00E-01,,,,6.2,-4.00E-01
-2.45E-01,0.00E+00,,,,6.25,-4.00E-01
-2.45E-01,-4.00E-01,,,,6.3,-4.00E-01
-2.44E-01,-4.00E-01,,,,6.35,-4.00E-01
-2.44E-01,-4.00E-01,,,,6.4,-4.00E-01
-2.44E-01,-4.00E-01,,,,6.45,-4.00E-01
-2.44E-01,0.00E+00,,,,6.5,-4.00E-01
-2.44E-01,-4.00E-01,,,,6.55,-4.00E-01
-2.44E-01,-4.00E-01,,,,6.6,-4.00E-01
-2.44E-01,-4.00E-01,,,,6.65,-4.00E-01
-2.44E-01,0.00E+00,,,,6.7,-4.00E-01
-2.44E-01,-4.00E-01,,,,6.75,0.00E+00
-2.44E-01,0.00E+00,,,,6.8,-4.00E-01
-2.44E-01,-4.00E-01,,,,6.85,-4.00E-01
-2.44E-01,-4.00E-01,,,,6.9,-4.00E-01
-2.44E-01,-4.00E-01,,,,6.95,-4.00E-01
-2.44E-01,-4.00E-01,,,,7,-4.00E-01
-2.44E-01,-4.00E-01,,,,7.05,-4.00E-01
-2.44E-01,-4.00E-01,,,,7.1,-4.00E-01
-2.44E-01,-4.00E-01,,,,7.15,-4.00E-01
-2.44E-01,-4.00E-01,,,,7.2,0.00E+00
-2.44E-01,-4.00E-01,,,,7.25,-4.00E-01
-2.44E-01,-4.00E-01,,,,7.3,-4.00E-01
-2.43E-01,-4.00E-01,,,,7.35,-4.00E-01
-2.43E-01,-4.00E-01,,,,7.4,-4.00E-01
-2.43E-01,-4.00E-01,,,,7.45,-4.00E-01
-2.43E-01,0.00E+00,,,,7.5,0.00E+00
-2.43E-01,-4.00E-01,,,,7.55,-4.00E-01
-2.43E-01,-4.00E-01,,,,7.6,0.00E+00
-2.43E-01,-4.00E-01,,,,7.65,-4.00E-01
-2.43E-01,-4.00E-01,,,,7.7,-4.00E-01
-2.43E-01,-4.00E-01,,,,7.75,0.00E+00
-2.43E-01,-4.00E-01,,,,7.8,-4.00E-01
-2.43E-01,-4.00E-01,,,,7.85,-4.00E-01
-2.43E-01,-4.00E-01,,,,7.9,-4.00E-01
-2.43E-01,0.00E+00,,,,7.95,-4.00E-01
-2.43E-01,-4.00E-01,,,,8,-4.00E-01
-2.43E-01,-4.00E-01,,,,8.05,-4.00E-01
-2.43E-01,-4.00E-01,,,,8.1,-4.00E-01
-2.43E-01,-4.00E-01,,,,8.15,-4.00E-01
-2.43E-01,-4.00E-01,,,,8.2,0.00E+00
-2.43E-01,0.00E+00,,,,8.25,-4.00E-01
-2.43E-01,-4.00E-01,,,,8.3,0.00E+00
-2.42E-01,0.00E+00,,,,8.35,-4.00E-01
-2.42E-01,-4.00E-01,,,,8.4,-4.00E-01
-2.42E-01,-4.00E-01,,,,8.45,-4.00E-01
-2.42E-01,0.00E+00,,,,8.5,-4.00E-01
-2.42E-01,-4.00E-01,,,,8.55,0.00E+00
-2.42E-01,-4.00E-01,,,,8.6,-4.00E-01
-2.42E-01,-4.00E-01,,,,8.65,-4.00E-01
-2.42E-01,-4.00E-01,,,,8.7,-4.00E-01
-2.42E-01,-4.00E-01,,,,8.75,-4.00E-01
-2.42E-01,-4.00E-01,,,,8.8,-4.00E-01
-2.42E-01,-4.00E-01,,,,8.85,-4.00E-01
-2.42E-01,-4.00E-01,,,,8.9,-4.00E-01
-2.42E-01,0.00E+00,,,,8.95,-4.00E-01
-2.42E-01,-4.00E-01,,,,9,-4.00E-01
-2.42E-01,0.00E+00,,,,9.05,-4.00E-01
-2.42E-01,-4.00E-01,,,,9.1,-4.00E-01
-2.42E-01,-4.00E-01,,,,9.15,-4.00E-01
-2.42E-01,-4.00E-01,,,,9.2,-4.00E-01
-2.42E-01,-4.00E-01,,,,9.25,-4.00E-01
-2.42E-01,0.00E+00,,,,9.3,-4.00E-01
-2.41E-01,-4.00E-01,,,,9.35,-4.00E-01
-2.41E-01,-4.00E-01,,,,9.4,-4.00E-01
-2.41E-01,-4.00E-01,,,,9.45,-4.00E-01
-2.41E-01,-4.00E-01,,,,9.5,-4.00E-01
-2.41E-01,-4.00E-01,,,,9.55,-4.00E-01
-2.41E-01,-4.00E-01,,,,9.6,-4.00E-01
-2.41E-01,-4.00E-01,,,,9.65,-4.00E-01
-2.41E-01,-4.00E-01,,,,9.7,-4.00E-01
-2.41E-01,-4.00E-01,,,,9.75,-4.00E-01
-2.41E-01,-4.00E-01,,,,9.8,0.00E+00
-2.41E-01,-4.00E-01,,,,9.85,-4.00E-01
-2.41E-01,-4.00E-01,,,,9.9,-4.00E-01
-2.41E-01,-4.00E-01,,,,9.95,-4.00E-01
-2.41E-01,-4.00E-01,,,,10,-4.00E-01
-2.41E-01,-4.00E-01,,,,10.05,-4.00E-01
-2.41E-01,-4.00E-01,,,,10.1,-4.00E-01
-2.41E-01,-4.00E-01,,,,10.15,-4.00E-01
-2.41E-01,-4.00E-01,,,,10.2,-4.00E-01
-2.41E-01,-4.00E-01,,,,10.25,-4.00E-01
-2.41E-01,-4.00E-01,,,,10.3,-4.00E-01
-2.40E-01,-4.00E-01,,,,10.35,0.00E+00
-2.40E-01,-4.00E-01,,,,10.4,-4.00E-01
-2.40E-01,-4.00E-01,,,,10.45,0.00E+00
-2.40E-01,-4.00E-01,,,,10.5,-4.00E-01
-2.40E-01,0.00E+00,,,,10.55,0.00E+00
-2.40E-01,-4.00E-01,,,,10.6,0.00E+00
-2.40E-01,-4.00E-01,,,,10.65,-4.00E-01
-2.40E-01,-4.00E-01,,,,10.7,-4.00E-01
-2.40E-01,-4.00E-01,,,,10.75,0.00E+00
-2.40E-01,-4.00E-01,,,,10.8,-4.00E-01
-2.40E-01,-4.00E-01,,,,10.85,-4.00E-01
-2.40E-01,-4.00E-01,,,,10.9,-4.00E-01
-2.40E-01,-4.00E-01,,,,10.95,-4.00E-01
-2.40E-01,-4.00E-01,,,,11,-4.00E-01
-2.40E-01,-4.00E-01,,,,11.05,0.00E+00
-2.40E-01,0.00E+00,,,,11.1,-4.00E-01
-2.40E-01,-4.00E-01,,,,11.15,-4.00E-01
-2.40E-01,0.00E+00,,,,11.2,-4.00E-01
-2.40E-01,-4.00E-01,,,,11.25,-4.00E-01
-2.40E-01,0.00E+00,,,,11.3,-4.00E-01
-2.39E-01,0.00E+00,,,,11.35,-4.00E-01
-2.39E-01,-4.00E-01,,,,11.4,-4.00E-01
-2.39E-01,-4.00E-01,,,,11.45,0.00E+00
-2.39E-01,0.00E+00,,,,11.5,-4.00E-01
-2.39E-01,-4.00E-01,,,,11.55,-4.00E-01
-2.39E-01,-4.00E-01,,,,11.6,-4.00E-01
-2.39E-01,-4.00E-01,,,,11.65,0.00E+00
-2.39E-01,-4.00E-01,,,,11.7,-4.00E-01
-2.39E-01,-4.00E-01,,,,11.75,0.00E+00
-2.39E-01,0.00E+00,,,,11.8,-4.00E-01
-2.39E-01,-4.00E-01,,,,11.85,-4.00E-01
-2.39E-01,-4.00E-01,,,,11.9,0.00E+00
-2.39E-01,-4.00E-01,,,,11.95,-4.00E-01
-2.39E-01,-4.00E-01,,,,12,-4.00E-01
-2.39E-01,-4.00E-01,,,,12.05,-4.00E-01
-2.39E-01,-4.00E-01,,,,12.1,-4.00E-01
-2.39E-01,-4.00E-01,,,,12.15,0.00E+00
-2.39E-01,0.00E+00,,,,12.2,-4.00E-01
-2.39E-01,-4.00E-01,,,,12.25,-4.00E-01
-2.39E-01,-4.00E-01,,,,12.3,-4.00E-01
-2.38E-01,-4.00E-01,,,,12.35,-4.00E-01
-2.38E-01,0.00E+00,,,,12.4,-4.00E-01
-2.38E-01,-4.00E-01,,,,12.45,-4.00E-01
-2.38E-01,0.00E+00,,,,12.5,-4.00E-01
-2.38E-01,-4.00E-01,,,,12.55,-4.00E-01
-2.38E-01,-4.00E-01,,,,12.6,-4.00E-01
-2.38E-01,0.00E+00,,,,12.65,-4.00E-01
-2.38E-01,-4.00E-01,,,,12.7,-4.00E-01
-2.38E-01,-4.00E-01,,,,12.75,-4.00E-01
-2.38E-01,-4.00E-01,,,,12.8,-4.00E-01
-2.38E-01,-4.00E-01,,,,12.85,-4.00E-01
-2.38E-01,0.00E+00,,,,12.9,-4.00E-01
-2.38E-01,-4.00E-01,,,,12.95,-4.00E-01
-2.38E-01,-4.00E-01,,,,13,-4.00E-01
-2.38E-01,-4.00E-01,,,,13.05,-4.00E-01
-2.38E-01,-4.00E-01,,,,13.1,-4.00E-01
-2.38E-01,-4.00E-01,,,,13.15,-4.00E-01
-2.38E-01,-4.00E-01,,,,13.2,-4.00E-01
-2.38E-01,-4.00E-01,,,,13.25,0.00E+00
-2.38E-01,-4.00E-01,,,,13.3,-4.00E-01
-2.37E-01,-4.00E-01,,,,13.35,-4.00E-01
-2.37E-01,-4.00E-01,,,,13.4,0.00E+00
-2.37E-01,-4.00E-01,,,,13.45,-4.00E-01
-2.37E-01,-4.00E-01,,,,13.5,-4.00E-01
-2.37E-01,-4.00E-01,,,,13.55,-4.00E-01
-2.37E-01,-4.00E-01,,,,13.6,-4.00E-01
-2.37E-01,-4.00E-01,,,,13.65,-4.00E-01
-2.37E-01,-4.00E-01,,,,13.7,-4.00E-01
-2.37E-01,-4.00E-01,,,,13.75,-4.00E-01
-2.37E-01,-4.00E-01,,,,13.8,-4.00E-01
-2.37E-01,-4.00E-01,,,,13.85,-4.00E-01
-2.37E-01,-4.00E-01,,,,13.9,0.00E+00
-2.37E-01,-4.00E-01,,,,13.95,-4.00E-01
-2.37E-01,0.00E+00,,,,14,-4.00E-01
-2.37E-01,-4.00E-01,,,,14.05,-4.00E-01
-2.37E-01,-4.00E-01,,,,14.1,-4.00E-01
-2.37E-01,0.00E+00,,,,14.15,-4.00E-01
-2.37E-01,-4.00E-01,,,,14.2,-4.00E-01
-2.37E-01,-4.00E-01,,,,14.25,-4.00E-01
-2.37E-01,-4.00E-01,,,,14.3,-4.00E-01
-2.36E-01,-4.00E-01,,,,14.35,-4.00E-01
-2.36E-01,-4.00E-01,,,,14.4,0.00E+00
-2.36E-01,-4.00E-01,,,,14.45,-4.00E-01
-2.36E-01,-4.00E-01,,,,14.5,-4.00E-01
-2.36E-01,-4.00E-01,,,,14.55,-4.00E-01
-2.36E-01,-4.00E-01,,,,14.6,-4.00E-01
-2.36E-01,0.00E+00,,,,14.65,-4.00E-01
-2.36E-01,-4.00E-01,,,,14.7,-4.00E-01
-2.36E-01,-4.00E-01,,,,14.75,-4.00E-01
-2.36E-01,-4.00E-01,,,,14.8,0.00E+00
-2.36E-01,-4.00E-01,,,,14.85,-4.00E-01
-2.36E-01,-4.00E-01,,,,14.9,-4.00E-01
-2.36E-01,-4.00E-01,,,,14.95,-4.00E-01
-2.36E-01,-4.00E-01,,,,15,-4.00E-01
-2.36E-01,-4.00E-01,,,,15.05,-4.00E-01
-2.36E-01,-4.00E-01,,,,15.1,-4.00E-01
-2.36E-01,0.00E+00,,,,15.15,-4.00E-01
-2.36E-01,-4.00E-01,,,,15.2,0.00E+00
-2.36E-01,-4.00E-01,,,,15.25,-4.00E-01
-2.36E-01,-4.00E-01,,,,15.3,-4.00E-01
-2.35E-01,-4.00E-01,,,,15.35,-4.00E-01
-2.35E-01,-4.00E-01,,,,15.4,-4.00E-01
-2.35E-01,-4.00E-01,,,,15.45,-4.00E-01
-2.35E-01,-4.00E-01,,,,15.5,0.00E+00
-2.35E-01,0.00E+00,,,,15.55,-4.00E-01
-2.35E-01,-4.00E-01,,,,15.6,-4.00E-01
-2.35E-01,-4.00E-01,,,,15.65,-4.00E-01
-2.35E-01,-4.00E-01,,,,15.7,-4.00E-01
-2.35E-01,-4.00E-01,,,,15.75,-4.00E-01
-2.35E-01,-4.00E-01,,,,15.8,-4.00E-01
-2.35E-01,-4.00E-01,,,,15.85,-4.00E-01
-2.35E-01,-4.00E-01,,,,15.9,-4.00E-01
-2.35E-01,0.00E+00,,,,15.95,0.00E+00
-2.35E-01,-4.00E-01,,,,16,-4.00E-01
-2.35E-01,-4.00E-01,,,,16.05,-4.00E-01
-2.35E-01,-4.00E-01,,,,16.1,-4.00E-01
-2.35E-01,-4.00E-01,,,,16.15,0.00E+00
-2.35E-01,-4.00E-01,,,,16.2,-4.00E-01
-2.35E-01,0.00E+00,,,,16.25,0.00E+00
-2.35E-01,-4.00E-01,,,,16.3,-4.00E-01
-2.34E-01,-4.00E-01,,,,16.35,-4.00E-01
-2.34E-01,-4.00E-01,,,,16.4,-4.00E-01
-2.34E-01,-4.00E-01,,,,16.45,-4.00E-01
-2.34E-01,-4.00E-01,,,,16.5,-4.00E-01
-2.34E-01,-4.00E-01,,,,16.55,-4.00E-01
-2.34E-01,-4.00E-01,,,,16.6,-4.00E-01
-2.34E-01,-4.00E-01,,,,16.65,0.00E+00
-2.34E-01,0.00E+00,,,,16.7,-4.00E-01
-2.34E-01,-4.00E-01,,,,16.75,0.00E+00
-2.34E-01,-4.00E-01,,,,16.8,-4.00E-01
-2.34E-01,-4.00E-01,,,,16.85,-4.00E-01
-2.34E-01,0.00E+00,,,,16.9,-4.00E-01
-2.34E-01,-4.00E-01,,,,16.95,-4.00E-01
-2.34E-01,0.00E+00,,,,17,-4.00E-01
-2.34E-01,-4.00E-01,,,,17.05,-4.00E-01
-2.34E-01,-4.00E-01,,,,17.1,-4.00E-01
-2.34E-01,-4.00E-01,,,,17.15,-4.00E-01
-2.34E-01,-4.00E-01,,,,17.2,-4.00E-01
-2.34E-01,-4.00E-01,,,,17.25,-4.00E-01
-2.34E-01,-4.00E-01,,,,17.3,0.00E+00
-2.33E-01,-4.00E-01,,,,17.35,0.00E+00
-2.33E-01,0.00E+00,,,,17.4,-4.00E-01
-2.33E-01,-4.00E-01,,,,17.45,0.00E+00
-2.33E-01,0.00E+00,,,,17.5,0.00E+00
-2.33E-01,-4.00E-01,,,,17.55,-4.00E-01
-2.33E-01,-4.00E-01,,,,17.6,-4.00E-01
-2.33E-01,-4.00E-01,,,,17.65,-4.00E-01
-2.33E-01,-4.00E-01,,,,17.7,0.00E+00
-2.33E-01,-4.00E-01,,,,17.75,-4.00E-01
-2.33E-01,-4.00E-01,,,,17.8,-4.00E-01
-2.33E-01,-4.00E-01,,,,17.85,-4.00E-01
-2.33E-01,-4.00E-01,,,,17.9,0.00E+00
-2.33E-01,-4.00E-01,,,,17.95,-4.00E-01
-2.33E-01,-4.00E-01,,,,18,0.00E+00
-2.33E-01,0.00E+00,,,,18.05,-4.00E-01
-2.33E-01,0.00E+00,,,,18.1,-4.00E-01
-2.33E-01,-4.00E-01,,,,18.15,-4.00E-01
-2.33E-01,0.00E+00,,,,18.2,-4.00E-01
-2.33E-01,0.00E+00,,,,18.25,-4.00E-01
-2.33E-01,-4.00E-01,,,,18.3,0.00E+00
-2.32E-01,-4.00E-01,,,,18.35,-4.00E-01
-2.32E-01,-4.00E-01,,,,18.4,-4.00E-01
-2.32E-01,0.00E+00,,,,18.45,0.00E+00
-2.32E-01,-4.00E-01,,,,18.5,-4.00E-01
-2.32E-01,-4.00E-01,,,,18.55,-4.00E-01
-2.32E-01,-4.00E-01,,,,18.6,-4.00E-01
-2.32E-01,0.00E+00,,,,18.65,-4.00E-01
-2.32E-01,-4.00E-01,,,,18.7,0.00E+00
-2.32E-01,0.00E+00,,,,18.75,-4.00E-01
-2.32E-01,-4.00E-01,,,,18.8,0.00E+00
-2.32E-01,-4.00E-01,,,,18.85,-4.00E-01
-2.32E-01,-4.00E-01,,,,18.9,0.00E+00
-2.32E-01,-4.00E-01,,,,18.95,-4.00E-01
-2.32E-01,-4.00E-01,,,,19,0.00E+00
-2.32E-01,0.00E+00,,,,19.05,-4.00E-01
-2.32E-01,-4.00E-01,,,,19.1,-4.00E-01
-2.32E-01,-4.00E-01,,,,19.15,-4.00E-01
-2.32E-01,0.00E+00,,,,19.2,-4.00E-01
-2.32E-01,-4.00E-01,,,,19.25,-4.00E-01
-2.32E-01,-4.00E-01,,,,19.3,0.00E+00
-2.31E-01,-4.00E-01,,,,19.35,-4.00E-01
-2.31E-01,-4.00E-01,,,,19.4,0.00E+00
-2.31E-01,0.00E+00,,,,19.45,-4.00E-01
-2.31E-01,-4.00E-01,,,,19.5,-4.00E-01
-2.31E-01,0.00E+00,,,,19.55,-4.00E-01
-2.31E-01,-4.00E-01,,,,19.6,-4.00E-01
-2.31E-01,0.00E+00,,,,19.65,-4.00E-01
-2.31E-01,-4.00E-01,,,,19.7,0.00E+00
-2.31E-01,0.00E+00,,,,19.75,-4.00E-01
-2.31E-01,-4.00E-01,,,,19.8,-4.00E-01
-2.31E-01,-4.00E-01,,,,19.85,-4.00E-01
-2.31E-01,-4.00E-01,,,,19.9,0.00E+00
-2.31E-01,-4.00E-01,,,,19.95,-4.00E-01
-2.31E-01,-4.00E-01,,,,20,-4.00E-01
-2.31E-01,0.00E+00,,,,20.05,-4.00E-01
-2.31E-01,-4.00E-01,,,,20.1,-4.00E-01
-2.31E-01,0.00E+00,,,,20.15,-4.00E-01
-2.31E-01,-4.00E-01,,,,20.2,-4.00E-01
-2.31E-01,-4.00E-01,,,,20.25,-4.00E-01
-2.31E-01,-4.00E-01,,,,20.3,0.00E+00
-2.30E-01,-4.00E-01,,,,20.35,-4.00E-01
-2.30E-01,-4.00E-01,,,,20.4,-4.00E-01
-2.30E-01,0.00E+00,,,,20.45,-4.00E-01
-2.30E-01,-4.00E-01,,,,20.5,-4.00E-01
-2.30E-01,-4.00E-01,,,,20.55,-4.00E-01
-2.30E-01,-4.00E-01,,,,20.6,-4.00E-01
-2.30E-01,0.00E+00,,,,20.65,0.00E+00
-2.30E-01,-4.00E-01,,,,20.7,-4.00E-01
-2.30E-01,-4.00E-01,,,,20.75,0.00E+00
-2.30E-01,-4.00E-01,,,,20.8,-4.00E-01
-2.30E-01,-4.00E-01,,,,20.85,0.00E+00
-2.30E-01,-4.00E-01,,,,20.9,-4.00E-01
-2.30E-01,-4.00E-01,,,,20.95,-4.00E-01
-2.30E-01,-4.00E-01,,,,21,-4.00E-01
-2.30E-01,0.00E+00,,,,21.05,-4.00E-01
-2.30E-01,-4.00E-01,,,,21.1,-4.00E-01
-2.30E-01,-4.00E-01,,,,21.15,-4.00E-01
-2.30E-01,-4.00E-01,,,,21.2,-4.00E-01
-2.30E-01,-4.00E-01,,,,21.25,0.00E+00
-2.30E-01,-4.00E-01,,,,21.3,-4.00E-01
-2.29E-01,-4.00E-01,,,,21.35,-4.00E-01
-2.29E-01,0.00E+00,,,,21.4,-4.00E-01
-2.29E-01,-4.00E-01,,,,21.45,0.00E+00
-2.29E-01,0.00E+00,,,,21.5,-4.00E-01
-2.29E-01,-4.00E-01,,,,21.55,0.00E+00
-2.29E-01,0.00E+00,,,,21.6,-4.00E-01
-2.29E-01,-4.00E-01,,,,21.65,0.00E+00
-2.29E-01,-4.00E-01,,,,21.7,-4.00E-01
-2.29E-01,-4.00E-01,,,,21.75,-4.00E-01
-2.29E-01,-4.00E-01,,,,21.8,0.00E+00
-2.29E-01,-4.00E-01,,,,21.85,-4.00E-01
-2.29E-01,-4.00E-01,,,,21.9,-4.00E-01
-2.29E-01,-4.00E-01,,,,21.95,-4.00E-01
-2.29E-01,0.00E+00,,,,22,-4.00E-01
-2.29E-01,-4.00E-01,,,,22.05,-4.00E-01
-2.29E-01,-4.00E-01,,,,22.1,0.00E+00
-2.29E-01,-4.00E-01,,,,22.15,-4.00E-01
-2.29E-01,0.00E+00,,,,22.2,0.00E+00
-2.29E-01,-4.00E-01,,,,22.25,-4.00E-01
-2.29E-01,0.00E+00,,,,22.3,0.00E+00
-2.28E-01,-4.00E-01,,,,22.35,-4.00E-01
-2.28E-01,0.00E+00,,,,22.4,-4.00E-01
-2.28E-01,-4.00E-01,,,,22.45,0.00E+00
-2.28E-01,-4.00E-01,,,,22.5,-4.00E-01
-2.28E-01,0.00E+00,,,,22.55,-4.00E-01
-2.28E-01,-4.00E-01,,,,22.6,-4.00E-01
-2.28E-01,-4.00E-01,,,,22.65,-4.00E-01
-2.28E-01,-4.00E-01,,,,22.7,-4.00E-01
-2.28E-01,-4.00E-01,,,,22.75,-4.00E-01
-2.28E-01,-4.00E-01,,,,22.8,-4.00E-01
-2.28E-01,0.00E+00,,,,22.85,-4.00E-01
-2.28E-01,-4.00E-01,,,,22.9,-4.00E-01
-2.28E-01,0.00E+00,,,,22.95,-4.00E-01
-2.28E-01,-4.00E-01,,,,23,-4.00E-01
-2.28E-01,0.00E+00,,,,23.05,-4.00E-01
-2.28E-01,-4.00E-01,,,,23.1,-4.00E-01
-2.28E-01,-4.00E-01,,,,23.15,-4.00E-01
-2.28E-01,0.00E+00,,,,23.2,-4.00E-01
-2.28E-01,-4.00E-01,,,,23.25,-4.00E-01
-2.28E-01,-4.00E-01,,,,23.3,-4.00E-01
-2.27E-01,-4.00E-01,,,,23.35,-4.00E-01
-2.27E-01,-4.00E-01,,,,23.4,-4.00E-01
-2.27E-01,-4.00E-01,,,,23.45,-4.00E-01
-2.27E-01,-4.00E-01,,,,23.5,-4.00E-01
-2.27E-01,-4.00E-01,,,,23.55,-4.00E-01
-2.27E-01,-4.00E-01,,,,23.6,-4.00E-01
-2.27E-01,-4.00E-01,,,,23.65,-4.00E-01
-2.27E-01,-4.00E-01,,,,23.7,-4.00E-01
-2.27E-01,-4.00E-01,,,,23.75,-4.00E-01
-2.27E-01,-4.00E-01,,,,23.8,0.00E+00
-2.27E-01,-4.00E-01,,,,23.85,-4.00E-01
-2.27E-01,-4.00E-01,,,,23.9,-4.00E-01
-2.27E-01,-4.00E-01,,,,23.95,0.00E+00
-2.27E-01,-4.00E-01,,,,24,-4.00E-01
-2.27E-01,-4.00E-01,,,,24.05,0.00E+00
-2.27E-01,-4.00E-01,,,,24.1,-4.00E-01
-2.27E-01,-4.00E-01,,,,24.15,-4.00E-01
-2.27E-01,-4.00E-01,,,,24.2,-4.00E-01
-2.27E-01,-4.00E-01,,,,24.25,0.00E+00
-2.27E-01,-4.00E-01,,,,24.3,-4.00E-01
-2.26E-01,-4.00E-01,,,,24.35,-4.00E-01
-2.26E-01,-4.00E-01,,,,24.4,-4.00E-01
-2.26E-01,-4.00E-01,,,,24.45,-4.00E-01
-2.26E-01,-4.00E-01,,,,24.5,-4.00E-01
-2.26E-01,0.00E+00,,,,24.55,0.00E+00
-2.26E-01,-4.00E-01,,,,24.6,-4.00E-01
-2.26E-01,-4.00E-01,,,,24.65,0.00E+00
-2.26E-01,0.00E+00,,,,24.7,-4.00E-01
-2.26E-01,-4.00E-01,,,,24.75,-4.00E-01
-2.26E-01,0.00E+00,,,,24.8,0.00E+00
-2.26E-01,-4.00E-01,,,,24.85,-4.00E-01
-2.26E-01,-4.00E-01,,,,24.9,0.00E+00
-2.26E-01,-4.00E-01,,,,24.95,-4.00E-01
-2.26E-01,0.00E+00,,,,25,-4.00E-01
-2.26E-01,-4.00E-01,,,,25.05,-4.00E-01
-2.26E-01,-4.00E-01,,,,25.1,0.00E+00
-2.26E-01,-4.00E-01,,,,25.15,-4.00E-01
-2.26E-01,-4.00E-01,,,,25.2,-4.00E-01
-2.26E-01,-4.00E-01,,,,25.25,-4.00E-01
-2.26E-01,0.00E+00,,,,25.3,-4.00E-01
-2.25E-01,-4.00E-01,,,,25.35,-4.00E-01
-2.25E-01,0.00E+00,,,,25.4,0.00E+00
-2.25E-01,-4.00E-01,,,,25.45,-4.00E-01
-2.25E-01,-4.00E-01,,,,25.5,-4.00E-01
-2.25E-01,0.00E+00,,,,25.55,-4.00E-01
-2.25E-01,-4.00E-01,,,,25.6,0.00E+00
-2.25E-01,0.00E+00,,,,25.65,-4.00E-01
-2.25E-01,-4.00E-01,,,,25.7,-4.00E-01
-2.25E-01,-4.00E-01,,,,25.75,-4.00E-01
-2.25E-01,-4.00E-01,,,,25.8,0.00E+00
-2.25E-01,0.00E+00,,,,25.85,-4.00E-01
-2.25E-01,-4.00E-01,,,,25.9,-4.00E-01
-2.25E-01,-4.00E-01,,,,25.95,-4.00E-01
-2.25E-01,-4.00E-01,,,,26,-4.00E-01
-2.25E-01,-4.00E-01,,,,26.05,0.00E+00
-2.25E-01,-4.00E-01,,,,26.1,-4.00E-01
-2.25E-01,0.00E+00,,,,26.15,-4.00E-01
